i   uint64_pair__iter_lg_table   uint64_pair__iter_lg   uint64_pair__rec_lg_table   uint64_pair__rec_lg   uint64__iter_lg_optimized_table   uint64__iter_lg_optimized   uint64__iter_lg_table   uint64__iter_lg   uint64__iter_n   uint64_pair__rec_n   uint64__rec_exp
 0           9          5          4          5          5          4          4          3          3          4          5
 1           6         10          6          9          6          9          4          5          5          6         10
 2           5         15          6         16         10         10          4          8          9         12         25
 3           4         21          5         28         18         16          4         13         17         25        524
 4           4         29          5         36         24         25          4         22         26         44
 5           4         35          5         48         33         34          4         35         41         83
 6           4         42          5         56         39         41          4         47         68        155
 7           4         47          5         68         46         50          4         56        124        282
 8           4         54          5         78         53         58          4         64        237        541
 9           4         63          5         89         59         66          4         71        466       1062
10           4         69          5         96         66         73          4         79
11           8         75          8        107         73         84          7         87
12          13         81         14        114         79         91         10         95
13          19         87         21        125         85         98         16        103
14          25         93         30        133         91        105         23        110
15          32         99         39        144         96        112         29        118
16          37        105         48        151        102        118         36        125
17          43        111         56        162        108        125         42        133
18          49        117         65        170        113        132         48        140
19          58        123         73        180        119        139         54        148
20          63        129         86        188        131        146         60        155
21          68        133         92        198        143        152         70        162
22          72        138        100        204        153        159         78        170
23          76        142        107        213        161        166         87        177
24          82        148        115        219        169        173         95        184
25          86        152        122        228        177        178        102        191
26          91        159        131        234        184        185        110        198
27          96        164        139        243        192        192        117        205
28         102        169        148        250        199        198        123        211
29         107        176        156        259        207        205        128        217
30         113        182        165        265        214        211        134        222
31         119        188        174        280        222        218        141        228
