<?xml version="1.0" encoding="utf-8"  standalone="no"?>
<!DOCTYPE svg PUBLIC "-//W3C//DTD SVG 1.1//EN" 
 "http://www.w3.org/Graphics/SVG/1.1/DTD/svg11.dtd">
<svg 
 width="600" height="480" 
 viewBox="0 0 600 480"
 xmlns="http://www.w3.org/2000/svg"
 xmlns:xlink="http://www.w3.org/1999/xlink"
>

<title>Fibonacci_GMP</title>
<desc>Produced by GNUPLOT 4.6 patchlevel 0 </desc>

<g id="gnuplot_canvas">

<rect x="0" y="0" width="600" height="480" fill="none"/>
<defs>

	<circle id='gpDot' r='0.5' stroke-width='0.5'/>
	<path id='gpPt0' stroke-width='0.222' stroke='currentColor' d='M-1,0 h2 M0,-1 v2'/>
	<path id='gpPt1' stroke-width='0.222' stroke='currentColor' d='M-1,-1 L1,1 M1,-1 L-1,1'/>
	<path id='gpPt2' stroke-width='0.222' stroke='currentColor' d='M-1,0 L1,0 M0,-1 L0,1 M-1,-1 L1,1 M-1,1 L1,-1'/>
	<rect id='gpPt3' stroke-width='0.222' stroke='currentColor' x='-1' y='-1' width='2' height='2'/>
	<rect id='gpPt4' stroke-width='0.222' stroke='currentColor' fill='currentColor' x='-1' y='-1' width='2' height='2'/>
	<circle id='gpPt5' stroke-width='0.222' stroke='currentColor' cx='0' cy='0' r='1'/>
	<use xlink:href='#gpPt5' id='gpPt6' fill='currentColor' stroke='none'/>
	<path id='gpPt7' stroke-width='0.222' stroke='currentColor' d='M0,-1.33 L-1.33,0.67 L1.33,0.67 z'/>
	<use xlink:href='#gpPt7' id='gpPt8' fill='currentColor' stroke='none'/>
	<use xlink:href='#gpPt7' id='gpPt9' stroke='currentColor' transform='rotate(180)'/>
	<use xlink:href='#gpPt9' id='gpPt10' fill='currentColor' stroke='none'/>
	<use xlink:href='#gpPt3' id='gpPt11' stroke='currentColor' transform='rotate(45)'/>
	<use xlink:href='#gpPt11' id='gpPt12' fill='currentColor' stroke='none'/>
</defs>
<g style="fill:none; color:white; stroke:currentColor; stroke-width:1.00; stroke-linecap:butt; stroke-linejoin:miter">
</g>
<g style="fill:none; color:black; stroke:currentColor; stroke-width:1.00; stroke-linecap:butt; stroke-linejoin:miter">
	<path  d='M71.9,422.4 L80.9,422.4 M575.0,422.4 L566.0,422.4  h0.01'/>	<g transform="translate(63.6,426.9)" style="stroke:none; fill:black; font-family:Arial; font-size:12.00pt; text-anchor:end">
		<text> 0</text>
	</g>
	<path  d='M71.9,341.3 L80.9,341.3 M575.0,341.3 L566.0,341.3  h0.01'/>	<g transform="translate(63.6,345.8)" style="stroke:none; fill:black; font-family:Arial; font-size:12.00pt; text-anchor:end">
		<text> 100</text>
	</g>
	<path  d='M71.9,260.1 L80.9,260.1 M575.0,260.1 L566.0,260.1  h0.01'/>	<g transform="translate(63.6,264.6)" style="stroke:none; fill:black; font-family:Arial; font-size:12.00pt; text-anchor:end">
		<text> 200</text>
	</g>
	<path  d='M71.9,179.0 L80.9,179.0 M575.0,179.0 L566.0,179.0  h0.01'/>	<g transform="translate(63.6,183.5)" style="stroke:none; fill:black; font-family:Arial; font-size:12.00pt; text-anchor:end">
		<text> 300</text>
	</g>
	<path  d='M71.9,97.8 L80.9,97.8 M575.0,97.8 L566.0,97.8  h0.01'/>	<g transform="translate(63.6,102.3)" style="stroke:none; fill:black; font-family:Arial; font-size:12.00pt; text-anchor:end">
		<text> 400</text>
	</g>
	<path  d='M71.9,16.7 L80.9,16.7 M575.0,16.7 L566.0,16.7  h0.01'/>	<g transform="translate(63.6,21.2)" style="stroke:none; fill:black; font-family:Arial; font-size:12.00pt; text-anchor:end">
		<text> 500</text>
	</g>
	<path  d='M117.3,422.4 L117.3,413.4 M117.3,16.7 L117.3,25.7  h0.01'/>	<g transform="translate(117.3,444.9)" style="stroke:none; fill:black; font-family:Arial; font-size:12.00pt; text-anchor:middle">
		<text> 4</text>
	</g>
	<path  d='M199.7,422.4 L199.7,413.4 M199.7,16.7 L199.7,25.7  h0.01'/>	<g transform="translate(199.7,444.9)" style="stroke:none; fill:black; font-family:Arial; font-size:12.00pt; text-anchor:middle">
		<text> 6</text>
	</g>
	<path  d='M282.2,422.4 L282.2,413.4 M282.2,16.7 L282.2,25.7  h0.01'/>	<g transform="translate(282.2,444.9)" style="stroke:none; fill:black; font-family:Arial; font-size:12.00pt; text-anchor:middle">
		<text> 8</text>
	</g>
	<path  d='M364.7,422.4 L364.7,413.4 M364.7,16.7 L364.7,25.7  h0.01'/>	<g transform="translate(364.7,444.9)" style="stroke:none; fill:black; font-family:Arial; font-size:12.00pt; text-anchor:middle">
		<text> 10</text>
	</g>
	<path  d='M447.2,422.4 L447.2,413.4 M447.2,16.7 L447.2,25.7  h0.01'/>	<g transform="translate(447.2,444.9)" style="stroke:none; fill:black; font-family:Arial; font-size:12.00pt; text-anchor:middle">
		<text> 12</text>
	</g>
	<path  d='M529.6,422.4 L529.6,413.4 M529.6,16.7 L529.6,25.7  h0.01'/>	<g transform="translate(529.6,444.9)" style="stroke:none; fill:black; font-family:Arial; font-size:12.00pt; text-anchor:middle">
		<text> 14</text>
	</g>
	<path  d='M71.9,16.7 L71.9,422.4 L575.0,422.4 L575.0,16.7 L71.9,16.7 Z  h0.01'/>	<g transform="translate(17.6,219.6) rotate(270)" style="stroke:none; fill:black; font-family:Arial; font-size:12.00pt; text-anchor:middle">
		<text>milliseconds for 10.000 F_n with n ~ 2^i</text>
	</g>
	<g transform="translate(323.4,471.9)" style="stroke:none; fill:black; font-family:Arial; font-size:12.00pt; text-anchor:middle">
		<text>i</text>
	</g>
</g>
	<g id="Fibonacci_GMP_plot_1" ><title>Fibonacci_GMP_plot_1</title>
<g style="fill:none; color:white; stroke:currentColor; stroke-width:2.00; stroke-linecap:butt; stroke-linejoin:miter">
</g>
<g style="fill:none; color:red; stroke:currentColor; stroke-width:2.00; stroke-linecap:butt; stroke-linejoin:miter">
	<g transform="translate(80.2,210.9)" style="stroke:none; fill:black; font-family:Arial; font-size:12.00pt; text-anchor:start">
		<text>mpz__gmp</text>
	</g>
	<path stroke='rgb(224,   0,   0)'  d='M320.9,206.4 L363.1,206.4 M71.9,422.4 L76.0,422.4 L117.3,422.4 L158.5,422.4 L199.7,421.6 L241.0,421.6 
		L282.2,420.8 L323.5,420.0 L364.7,418.3 L405.9,415.1 L447.2,404.5 L488.4,374.5 L529.6,291.8 L570.9,53.2 
		L573.2,16.7  h0.01'/></g>
	</g>
	<g id="Fibonacci_GMP_plot_2" ><title>Fibonacci_GMP_plot_2</title>
<g style="fill:none; color:white; stroke:rgb(224,   0,   0); stroke-width:1.00; stroke-linecap:butt; stroke-linejoin:miter">
</g>
<g style="fill:none; color:green; stroke:currentColor; stroke-width:1.00; stroke-linecap:butt; stroke-linejoin:miter">
	<g transform="translate(80.2,228.9)" style="stroke:none; fill:black; font-family:Arial; font-size:12.00pt; text-anchor:start">
		<text>mpz_pair__iter_lg_table</text>
	</g>
	<path stroke='rgb(128,   0,   0)'  d='M320.9,224.4 L363.1,224.4 M71.9,421.5 L76.0,421.6 L117.3,421.6 L158.5,421.6 L199.7,420.8 L241.0,420.8 
		L282.2,420.8 L323.5,420.8 L364.7,420.8 L405.9,412.7 L447.2,389.1 L488.4,324.2 L529.6,145.7 L540.2,16.7 
		 h0.01'/></g>
	</g>
	<g id="Fibonacci_GMP_plot_3" ><title>Fibonacci_GMP_plot_3</title>
<g style="fill:none; color:white; stroke:rgb(128,   0,   0); stroke-width:2.00; stroke-linecap:butt; stroke-linejoin:miter">
</g>
<g style="fill:none; color:blue; stroke:currentColor; stroke-width:2.00; stroke-linecap:butt; stroke-linejoin:miter">
	<g transform="translate(80.2,246.9)" style="stroke:none; fill:black; font-family:Arial; font-size:12.00pt; text-anchor:start">
		<text>mpz_pair__iter_lg</text>
	</g>
	<path stroke='rgb(255,   0,   0)'  d='M320.9,242.4 L363.1,242.4 M71.9,415.3 L76.0,415.1 L117.3,413.5 L158.5,411.9 L199.7,410.2 L241.0,407.8 
		L282.2,404.5 L323.5,400.5 L364.7,394.8 L405.9,384.3 L447.2,356.7 L488.4,290.1 L529.6,110.0 L537.2,16.7 
		 h0.01'/></g>
	</g>
	<g id="Fibonacci_GMP_plot_4" ><title>Fibonacci_GMP_plot_4</title>
<g style="fill:none; color:white; stroke:rgb(255,   0,   0); stroke-width:1.00; stroke-linecap:butt; stroke-linejoin:miter">
</g>
<g style="fill:none; color:cyan; stroke:currentColor; stroke-width:1.00; stroke-linecap:butt; stroke-linejoin:miter">
	<g transform="translate(80.2,264.9)" style="stroke:none; fill:black; font-family:Arial; font-size:12.00pt; text-anchor:start">
		<text>mpz_pair__rec_lg_table</text>
	</g>
	<path stroke='rgb(  0,   0, 128)'  d='M320.9,260.4 L363.1,260.4 M71.9,420.8 L76.0,420.8 L117.3,421.6 L158.5,421.6 L199.7,420.8 L241.0,420.8 
		L282.2,420.8 L323.5,420.8 L364.7,420.8 L405.9,412.7 L447.2,386.7 L488.4,319.4 L529.6,136.0 L539.3,16.7 
		 h0.01'/></g>
	</g>
	<g id="Fibonacci_GMP_plot_5" ><title>Fibonacci_GMP_plot_5</title>
<g style="fill:none; color:white; stroke:rgb(  0,   0, 128); stroke-width:2.00; stroke-linecap:butt; stroke-linejoin:miter">
</g>
<g style="fill:none; color:#157545; stroke:currentColor; stroke-width:2.00; stroke-linecap:butt; stroke-linejoin:miter">
	<g transform="translate(80.2,282.9)" style="stroke:none; fill:black; font-family:Arial; font-size:12.00pt; text-anchor:start">
		<text>mpz_pair__rec_lg</text>
	</g>
	<path stroke='rgb(  0,   0, 255)'  d='M320.9,278.4 L363.1,278.4 M71.9,411.4 L76.0,411.0 L117.3,407.8 L158.5,404.5 L199.7,401.3 L241.0,397.2 
		L282.2,392.4 L323.5,386.7 L364.7,379.4 L405.9,366.4 L447.2,336.4 L488.4,265.8 L529.6,81.6 L534.9,16.7 
		 h0.01'/></g>
	</g>
	<g id="Fibonacci_GMP_plot_6" ><title>Fibonacci_GMP_plot_6</title>
<g style="fill:none; color:white; stroke:rgb(  0,   0, 255); stroke-width:1.00; stroke-linecap:butt; stroke-linejoin:miter">
</g>
<g style="fill:none; color:#000094; stroke:currentColor; stroke-width:1.00; stroke-linecap:butt; stroke-linejoin:miter">
	<g transform="translate(80.2,300.9)" style="stroke:none; fill:black; font-family:Arial; font-size:12.00pt; text-anchor:start">
		<text>mpz__iter_lg_optimized_table</text>
	</g>
	<path stroke='rgb(  0, 128,   0)'  d='M320.9,296.4 L363.1,296.4 M71.9,417.7 L76.0,417.5 L117.3,415.9 L158.5,414.3 L199.7,412.7 L241.0,410.2 
		L282.2,406.2 L323.5,402.9 L364.7,397.2 L405.9,385.9 L447.2,352.6 L488.4,263.4 L529.6,16.7  h0.01'/></g>
	</g>
	<g id="Fibonacci_GMP_plot_7" ><title>Fibonacci_GMP_plot_7</title>
<g style="fill:none; color:white; stroke:rgb(  0, 128,   0); stroke-width:2.00; stroke-linecap:butt; stroke-linejoin:miter">
</g>
<g style="fill:none; color:#FF9900; stroke:currentColor; stroke-width:2.00; stroke-linecap:butt; stroke-linejoin:miter">
	<g transform="translate(80.2,318.9)" style="stroke:none; fill:black; font-family:Arial; font-size:12.00pt; text-anchor:start">
		<text>mpz__iter_lg_optimized</text>
	</g>
	<path stroke='rgb(  0, 255,   0)'  d='M320.9,314.4 L363.1,314.4 M71.9,416.1 L76.0,415.9 L117.3,413.5 L158.5,411.0 L199.7,409.4 L241.0,405.4 
		L282.2,401.3 L323.5,394.8 L364.7,386.7 L405.9,370.5 L447.2,324.2 L488.4,202.5 L511.0,16.7  h0.01'/></g>
	</g>
	<g id="Fibonacci_GMP_plot_8" ><title>Fibonacci_GMP_plot_8</title>
<g style="fill:none; color:white; stroke:rgb(  0, 255,   0); stroke-width:1.00; stroke-linecap:butt; stroke-linejoin:miter">
</g>
<g style="fill:none; color:#0099A1; stroke:currentColor; stroke-width:1.00; stroke-linecap:butt; stroke-linejoin:miter">
	<g transform="translate(80.2,336.9)" style="stroke:none; fill:black; font-family:Arial; font-size:12.00pt; text-anchor:start">
		<text>mpz__iter_lg_table</text>
	</g>
	<path stroke='rgb(  0,  64,   0)'  d='M320.9,332.4 L363.1,332.4 M71.9,421.6 L76.0,421.6 L117.3,421.6 L158.5,421.6 L199.7,421.6 L241.0,421.6 
		L282.2,421.6 L323.5,421.6 L364.7,421.6 L405.9,411.0 L447.2,381.0 L488.4,292.6 L529.6,47.5 L531.5,16.7 
		 h0.01'/></g>
	</g>
	<g id="Fibonacci_GMP_plot_9" ><title>Fibonacci_GMP_plot_9</title>
<g style="fill:none; color:white; stroke:rgb(  0,  64,   0); stroke-width:2.00; stroke-linecap:butt; stroke-linejoin:miter">
</g>
<g style="fill:none; color:#D6D645; stroke:currentColor; stroke-width:2.00; stroke-linecap:butt; stroke-linejoin:miter">
	<g transform="translate(80.2,354.9)" style="stroke:none; fill:black; font-family:Arial; font-size:12.00pt; text-anchor:start">
		<text>mpz__iter_lg</text>
	</g>
	<path stroke='rgb(  0, 160,   0)'  d='M320.9,350.4 L363.1,350.4 M71.9,413.7 L76.0,413.5 L117.3,411.0 L158.5,408.6 L199.7,406.2 L241.0,402.9 
		L282.2,398.1 L323.5,392.4 L364.7,383.5 L405.9,367.2 L447.2,320.2 L488.4,198.5 L510.6,16.7  h0.01'/></g>
	</g>
	<g id="Fibonacci_GMP_plot_10" ><title>Fibonacci_GMP_plot_10</title>
<g style="fill:none; color:white; stroke:rgb(  0, 160,   0); stroke-width:1.00; stroke-linecap:butt; stroke-linejoin:miter">
</g>
<g style="fill:none; color:#A391FF; stroke:currentColor; stroke-width:1.00; stroke-linecap:butt; stroke-linejoin:miter">
	<g transform="translate(80.2,372.9)" style="stroke:none; fill:black; font-family:Arial; font-size:12.00pt; text-anchor:start">
		<text>mpz__iter_n</text>
	</g>
	<path stroke='rgb(128, 128,   0)'  d='M320.9,368.4 L363.1,368.4 M71.9,420.0 L76.0,420.0 L117.3,419.2 L158.5,417.5 L199.7,412.7 L241.0,403.7 
		L282.2,384.3 L323.5,340.4 L364.7,236.6 L397.5,16.7  h0.01'/></g>
	</g>
	<g id="Fibonacci_GMP_plot_11" ><title>Fibonacci_GMP_plot_11</title>
<g style="fill:none; color:#FFCC00; stroke:currentColor; stroke-width:1.00; stroke-linecap:butt; stroke-linejoin:miter">
	<g transform="translate(80.2,390.9)" style="stroke:none; fill:black; font-family:Arial; font-size:12.00pt; text-anchor:start">
		<text>mpz__pair__rec_n</text>
	</g>
	<path stroke='rgb(  0, 128, 128)'  d='M320.9,386.4 L363.1,386.4 M71.9,412.3 L76.0,411.9 L117.3,401.3 L158.5,376.2 L199.7,335.6 L241.0,246.3 
		L282.2,66.2 L287.6,16.7  h0.01'/></g>
	</g>
	<g id="Fibonacci_GMP_plot_12" ><title>Fibonacci_GMP_plot_12</title>
<g style="fill:none; color:#D60078; stroke:currentColor; stroke-width:1.00; stroke-linecap:butt; stroke-linejoin:miter">
	<g transform="translate(80.2,408.9)" style="stroke:none; fill:black; font-family:Arial; font-size:12.00pt; text-anchor:start">
		<text>mpz__rec_exp</text>
	</g>
	<path stroke='rgb(  0,   0,   0)'  d='M320.9,404.4 L363.1,404.4 M71.9,257.4 L76.0,239.8 L76.0,16.7  h0.01'/></g>
	</g>
<g style="fill:none; color:black; stroke:currentColor; stroke-width:1.00; stroke-linecap:butt; stroke-linejoin:miter">
	<path  d='M71.9,16.7 L71.9,422.4 L575.0,422.4 L575.0,16.7 L71.9,16.7 Z  h0.01'/></g>
</g>
</svg>

